# This file uses centimeters as units for non-parametric coordinates.

mtllib Body01_blockout.mtl
g default
v 0.223530 1.646604 0.230406
v 0.193091 1.723167 0.199031
v -0.223530 1.646604 0.230406
v -0.193091 1.723167 0.199031
v -0.223530 1.646604 -0.230406
v -0.193091 1.723167 -0.199031
v 0.223530 1.646604 -0.230406
v 0.193091 1.723167 -0.199031
v -0.449667 1.662962 0.254037
v 0.449667 1.662962 0.254037
v -0.449667 1.662962 -0.254037
v 0.449667 1.662962 -0.254037
v -0.359743 0.501235 0.254037
v -0.449667 0.591159 0.254037
v -0.449667 0.591159 -0.254037
v -0.359743 0.501235 -0.254037
v 0.449667 0.591159 0.254037
v 0.359743 0.501235 0.254037
v 0.359743 0.501235 -0.254037
v 0.449667 0.591159 -0.254037
v -0.511516 1.218202 0.204156
v -0.434953 1.192736 0.230406
v -0.511516 1.614328 0.204156
v -0.434953 1.639795 0.230406
v -0.511516 1.614328 -0.204156
v -0.434953 1.639795 -0.230406
v -0.511516 1.218202 -0.204156
v -0.434953 1.192736 -0.230406
v 0.511282 1.614328 0.204156
v 0.434718 1.639795 0.230406
v 0.511282 1.218202 0.204156
v 0.434718 1.192736 0.230406
v 0.511282 1.218202 -0.204156
v 0.434718 1.192736 -0.230406
v 0.511282 1.614328 -0.204156
v 0.434718 1.639795 -0.230406
vt 0.375000 0.000000
vt 0.625000 0.000000
vt 0.375000 0.250000
vt 0.625000 0.250000
vt 0.375000 0.500000
vt 0.625000 0.500000
vt 0.375000 0.750000
vt 0.625000 0.750000
vt 0.375000 1.000000
vt 0.625000 1.000000
vt 0.875000 0.000000
vt 0.875000 0.250000
vt 0.125000 0.000000
vt 0.125000 0.250000
vt 0.375000 0.250000
vt 0.625000 0.250000
vt 0.625000 0.500000
vt 0.375000 0.500000
vt 0.375000 0.730649
vt 0.625000 0.730649
vt 0.600003 0.750000
vt 0.399998 0.750000
vt 0.399998 1.000000
vt 0.600003 1.000000
vt 0.625000 0.019351
vt 0.875000 0.019351
vt 0.875000 0.250000
vt 0.125000 0.019351
vt 0.375000 0.019351
vt 0.125000 0.250000
vt 0.375000 1.000000
vt 0.625000 1.000000
vt 0.399998 0.000000
vt 0.600003 0.000000
vt 0.375000 0.000000
vt 0.625000 0.000000
vt 0.625000 0.250000
vt 0.375000 0.250000
vt 0.625000 0.500000
vt 0.375000 0.500000
vt 0.625000 0.750000
vt 0.375000 0.750000
vt 0.625000 1.000000
vt 0.375000 1.000000
vt 0.875000 0.000000
vt 0.875000 0.250000
vt 0.125000 0.000000
vt 0.125000 0.250000
vt 0.375000 0.000000
vt 0.625000 0.000000
vt 0.625000 0.250000
vt 0.375000 0.250000
vt 0.625000 0.500000
vt 0.375000 0.500000
vt 0.625000 0.750000
vt 0.375000 0.750000
vt 0.625000 1.000000
vt 0.375000 1.000000
vt 0.875000 0.000000
vt 0.875000 0.250000
vt 0.125000 0.000000
vt 0.125000 0.250000
vn 0.000000 0.379189 0.925319
vn 0.000000 0.379189 0.925319
vn 0.000000 0.379189 0.925319
vn 0.000000 0.379189 0.925319
vn -0.929255 0.369438 0.000000
vn -0.929255 0.369438 0.000000
vn -0.929255 0.369438 0.000000
vn -0.929255 0.369438 0.000000
vn 0.000000 0.379189 -0.925319
vn 0.000000 0.379189 -0.925319
vn 0.000000 0.379189 -0.925319
vn 0.000000 0.379189 -0.925319
vn 0.929255 0.369438 0.000000
vn 0.929255 0.369438 0.000000
vn 0.929255 0.369438 0.000000
vn 0.929255 0.369438 0.000000
vn 0.000000 1.000000 0.000000
vn 0.000000 1.000000 0.000000
vn 0.000000 1.000000 0.000000
vn 0.000000 1.000000 0.000000
vn 0.000000 -1.000000 0.000000
vn 0.000000 -1.000000 0.000000
vn 0.000000 -1.000000 0.000000
vn 0.000000 -1.000000 0.000000
vn 0.000000 1.000000 0.000000
vn 0.000000 1.000000 0.000000
vn 0.000000 1.000000 0.000000
vn 0.000000 1.000000 0.000000
vn 0.000000 0.000000 -1.000000
vn 0.000000 0.000000 -1.000000
vn 0.000000 0.000000 -1.000000
vn 0.000000 0.000000 -1.000000
vn 0.000000 -1.000000 0.000000
vn 0.000000 -1.000000 0.000000
vn 0.000000 -1.000000 0.000000
vn 0.000000 -1.000000 0.000000
vn 1.000000 0.000000 0.000000
vn 1.000000 0.000000 0.000000
vn 1.000000 0.000000 0.000000
vn 1.000000 0.000000 0.000000
vn -1.000000 0.000000 0.000000
vn -1.000000 0.000000 0.000000
vn -1.000000 0.000000 0.000000
vn -1.000000 0.000000 0.000000
vn 0.000000 0.000000 1.000000
vn 0.000000 0.000000 1.000000
vn 0.000000 0.000000 1.000000
vn 0.000000 0.000000 1.000000
vn -0.707107 -0.707107 0.000000
vn -0.707107 -0.707107 0.000000
vn -0.707107 -0.707107 0.000000
vn -0.707107 -0.707107 0.000000
vn 0.707107 -0.707107 0.000000
vn 0.707107 -0.707107 0.000000
vn 0.707107 -0.707107 0.000000
vn 0.707107 -0.707107 0.000000
vn 0.000000 0.000000 1.000000
vn 0.000000 0.000000 1.000000
vn 0.000000 0.000000 -1.000000
vn 0.000000 0.000000 -1.000000
vn -0.324321 0.000000 0.945947
vn -0.324321 0.000000 0.945947
vn -0.324321 0.000000 0.945947
vn -0.324321 0.000000 0.945947
vn -0.315618 0.948886 0.000000
vn -0.315618 0.948886 0.000000
vn -0.315618 0.948886 0.000000
vn -0.315618 0.948886 0.000000
vn -0.324321 0.000000 -0.945947
vn -0.324321 0.000000 -0.945947
vn -0.324321 0.000000 -0.945947
vn -0.324321 0.000000 -0.945947
vn -0.315618 -0.948886 0.000000
vn -0.315618 -0.948886 0.000000
vn -0.315618 -0.948886 0.000000
vn -0.315618 -0.948886 0.000000
vn 1.000000 0.000000 0.000000
vn 1.000000 0.000000 0.000000
vn 1.000000 0.000000 0.000000
vn 1.000000 0.000000 0.000000
vn -1.000000 0.000000 0.000000
vn -1.000000 0.000000 0.000000
vn -1.000000 0.000000 0.000000
vn -1.000000 0.000000 0.000000
vn 0.324321 0.000000 0.945947
vn 0.324321 0.000000 0.945947
vn 0.324321 0.000000 0.945947
vn 0.324321 0.000000 0.945947
vn 0.315618 -0.948886 0.000000
vn 0.315618 -0.948886 0.000000
vn 0.315618 -0.948886 0.000000
vn 0.315618 -0.948886 0.000000
vn 0.324321 0.000000 -0.945947
vn 0.324321 0.000000 -0.945947
vn 0.324321 0.000000 -0.945947
vn 0.324321 0.000000 -0.945947
vn 0.315618 0.948886 0.000000
vn 0.315618 0.948886 0.000000
vn 0.315618 0.948886 0.000000
vn 0.315618 0.948886 0.000000
vn -1.000000 0.000000 0.000000
vn -1.000000 0.000000 0.000000
vn -1.000000 0.000000 0.000000
vn -1.000000 0.000000 0.000000
vn 1.000000 0.000000 0.000000
vn 1.000000 0.000000 0.000000
vn 1.000000 0.000000 0.000000
vn 1.000000 0.000000 0.000000
s off
g Body01 Singles
usemtl initialShadingGroup
f 1/1/1 2/2/2 4/4/3 3/3/4
f 3/3/5 4/4/6 6/6/7 5/5/8
f 5/5/9 6/6/10 8/8/11 7/7/12
f 7/7/13 8/8/14 2/10/15 1/9/16
f 2/2/17 8/11/18 6/12/19 4/4/20
f 7/13/21 1/1/22 3/3/23 5/14/24
f 9/15/25 10/16/26 12/17/27 11/18/28
s 1
f 15/19/29 20/20/30 19/21/31 16/22/32
s off
f 13/23/33 16/22/34 19/21/35 18/24/36
f 17/25/37 20/26/38 12/27/39 10/16/40
f 15/28/41 14/29/42 9/15/43 11/30/44
s 2
f 14/29/45 17/25/46 10/16/47 9/15/48
s off
f 13/23/49 14/31/50 15/19/51 16/22/52
f 17/32/53 18/24/54 19/21/55 20/20/56
s 2
f 14/29/45 13/33/57 18/34/58 17/25/46
s 1
f 11/18/59 12/17/60 20/20/30 15/19/29
s off
f 21/35/61 22/36/62 24/37/63 23/38/64
f 23/38/65 24/37/66 26/39/67 25/40/68
f 25/40/69 26/39/70 28/41/71 27/42/72
f 27/42/73 28/41/74 22/43/75 21/44/76
f 22/36/77 28/45/78 26/46/79 24/37/80
f 27/47/81 21/35/82 23/38/83 25/48/84
f 29/49/85 30/50/86 32/51/87 31/52/88
f 31/52/89 32/51/90 34/53/91 33/54/92
f 33/54/93 34/53/94 36/55/95 35/56/96
f 35/56/97 36/55/98 30/57/99 29/58/100
f 30/50/101 36/59/102 34/60/103 32/51/104
f 35/61/105 29/49/106 31/52/107 33/62/108
